%YAML 1.1
%TAG !u! tag:unity3d.com,2011:
--- !u!21 &2100000
Material:
  serializedVersion: 6
  m_ObjectHideFlags: 0
  m_PrefabParentObject: {fileID: 0}
  m_PrefabInternal: {fileID: 0}
  m_Name: LandscapeGridGenerative
  m_Shader: {fileID: 4800000, guid: 18328fce3f7b046bb86b81cba7b6b536, type: 3}
  m_ShaderKeywords: _EMISSION
  m_LightmapFlags: 1
  m_CustomRenderQueue: -1
  stringTagMap: {}
  m_SavedProperties:
    serializedVersion: 2
    m_TexEnvs: []
    m_Floats:
    - first:
        name: _CellSize
      second: 7
    - first:
        name: _EmissionGain
      second: 0.01
    - first:
        name: _LineWidth
      second: 0.05
    - first:
        name: _ParcelSize
      second: 1
    m_Colors:
    - first:
        name: _EmissionColor
      second: {r: 0.16862746, g: 0.92549026, b: 0.8000001, a: 1}
    - first:
        name: _LineColor
      second: {r: 0.17030708, g: 0.9264706, b: 0.8013124, a: 0}
    - first:
        name: _MainColor
      second: {r: 0.45230561, g: 0.17192905, b: 0.7794118, a: 1}
