%YAML 1.1
%TAG !u! tag:unity3d.com,2011:
--- !u!128 &12800000
Font:
  m_ObjectHideFlags: 0
  m_PrefabParentObject: {fileID: 0}
  m_PrefabInternal: {fileID: 0}
  m_Name: Raleway1
  serializedVersion: 5
  m_AsciiStartOffset: 0
  m_Tracking: 1
  m_LineSpacing: 85
  m_CharacterSpacing: 0
  m_CharacterPadding: 1
  m_ConvertCase: 0
  m_DefaultMaterial: {fileID: 21000011863069912}
  m_CharacterRects:
  - serializedVersion: 2
    index: 97
    uv:
      serializedVersion: 2
      x: 0.002016129
      y: 0.91568625
      width: 0.09475806
      height: 0.082352936
    vert:
      serializedVersion: 2
      x: 1
      y: -20
      width: 47
      height: -42
    advance: 47
    flipped: 0
  - serializedVersion: 2
    index: 98
    uv:
      serializedVersion: 2
      x: 0.002016129
      y: 0.8039216
      width: 0.09475806
      height: 0.109803915
    vert:
      serializedVersion: 2
      x: -1
      y: -6
      width: 47
      height: -56
    advance: 45
    flipped: 0
  - serializedVersion: 2
    index: 99
    uv:
      serializedVersion: 2
      x: 0.002016129
      y: 0.71960783
      width: 0.08669355
      height: 0.082352936
    vert:
      serializedVersion: 2
      x: 0
      y: -20
      width: 43
      height: -42
    advance: 40
    flipped: 0
  - serializedVersion: 2
    index: 100
    uv:
      serializedVersion: 2
      x: 0.002016129
      y: 0.6078431
      width: 0.10080645
      height: 0.109803915
    vert:
      serializedVersion: 2
      x: 1
      y: -6
      width: 50
      height: -56
    advance: 46
    flipped: 0
  - serializedVersion: 2
    index: 101
    uv:
      serializedVersion: 2
      x: 0.09072581
      y: 0.71960783
      width: 0.08467743
      height: 0.082352936
    vert:
      serializedVersion: 2
      x: 1
      y: -20
      width: 42
      height: -42
    advance: 41
    flipped: 0
  - serializedVersion: 2
    index: 102
    uv:
      serializedVersion: 2
      x: 0.098790325
      y: 0.85882354
      width: 0.08266129
      height: 0.13921571
    vert:
      serializedVersion: 2
      x: -2
      y: -5
      width: 41
      height: -71
    advance: 28
    flipped: 0
  - serializedVersion: 2
    index: 103
    uv:
      serializedVersion: 2
      x: 0.002016129
      y: 0.49411765
      width: 0.10685484
      height: 0.1117647
    vert:
      serializedVersion: 2
      x: -6
      y: -20
      width: 53
      height: -57
    advance: 45
    flipped: 0
  - serializedVersion: 2
    index: 104
    uv:
      serializedVersion: 2
      x: 0.10483871
      y: 0.6098039
      width: 0.0907258
      height: 0.10784316
    vert:
      serializedVersion: 2
      x: -1
      y: -6
      width: 45
      height: -55
    advance: 43
    flipped: 0
  - serializedVersion: 2
    index: 105
    uv:
      serializedVersion: 2
      x: 0.17741935
      y: 0.7490196
      width: 0.056451604
      height: 0.10784316
    vert:
      serializedVersion: 2
      x: -1
      y: -6
      width: 28
      height: -55
    advance: 21
    flipped: 0
  - serializedVersion: 2
    index: 106
    uv:
      serializedVersion: 2
      x: 0.18346775
      y: 0.8607843
      width: 0.0826613
      height: 0.1372549
    vert:
      serializedVersion: 2
      x: -14
      y: -6
      width: 41
      height: -70
    advance: 21
    flipped: 0
  - serializedVersion: 2
    index: 107
    uv:
      serializedVersion: 2
      x: 0.002016129
      y: 0.38431373
      width: 0.088709675
      height: 0.10784313
    vert:
      serializedVersion: 2
      x: -1
      y: -6
      width: 44
      height: -55
    advance: 42
    flipped: 0
  - serializedVersion: 2
    index: 108
    uv:
      serializedVersion: 2
      x: 0.002016129
      y: 0.27254903
      width: 0.052419357
      height: 0.109803915
    vert:
      serializedVersion: 2
      x: 0
      y: -6
      width: 26
      height: -56
    advance: 25
    flipped: 0
  - serializedVersion: 2
    index: 109
    uv:
      serializedVersion: 2
      x: 0.002016129
      y: 0.19019607
      width: 0.13508065
      height: 0.08039215
    vert:
      serializedVersion: 2
      x: -1
      y: -20
      width: 67
      height: -41
    advance: 65
    flipped: 0
  - serializedVersion: 2
    index: 110
    uv:
      serializedVersion: 2
      x: 0.05645161
      y: 0.3019608
      width: 0.09072582
      height: 0.08039215
    vert:
      serializedVersion: 2
      x: -1
      y: -20
      width: 45
      height: -41
    advance: 43
    flipped: 0
  - serializedVersion: 2
    index: 111
    uv:
      serializedVersion: 2
      x: 0.09274194
      y: 0.40980393
      width: 0.086693555
      height: 0.082352936
    vert:
      serializedVersion: 2
      x: 1
      y: -20
      width: 43
      height: -42
    advance: 43
    flipped: 0
  - serializedVersion: 2
    index: 112
    uv:
      serializedVersion: 2
      x: 0.110887095
      y: 0.49803922
      width: 0.10282259
      height: 0.109803945
    vert:
      serializedVersion: 2
      x: -4
      y: -20
      width: 51
      height: -56
    advance: 45
    flipped: 0
  - serializedVersion: 2
    index: 113
    uv:
      serializedVersion: 2
      x: 0.19758065
      y: 0.6372549
      width: 0.09475808
      height: 0.109803915
    vert:
      serializedVersion: 2
      x: 1
      y: -20
      width: 47
      height: -56
    advance: 45
    flipped: 0
  - serializedVersion: 2
    index: 114
    uv:
      serializedVersion: 2
      x: 0.2358871
      y: 0.77843136
      width: 0.07258065
      height: 0.08039218
    vert:
      serializedVersion: 2
      x: -1
      y: -20
      width: 36
      height: -41
    advance: 29
    flipped: 0
  - serializedVersion: 2
    index: 115
    uv:
      serializedVersion: 2
      x: 0.26814517
      y: 0.91568625
      width: 0.080645174
      height: 0.082352936
    vert:
      serializedVersion: 2
      x: -3
      y: -20
      width: 40
      height: -42
    advance: 35
    flipped: 0
  - serializedVersion: 2
    index: 116
    uv:
      serializedVersion: 2
      x: 0.002016129
      y: 0.08431371
      width: 0.060483873
      height: 0.10392157
    vert:
      serializedVersion: 2
      x: 3
      y: -9
      width: 30
      height: -53
    advance: 30
    flipped: 0
  - serializedVersion: 2
    index: 117
    uv:
      serializedVersion: 2
      x: 0.002016129
      y: 0.0019607767
      width: 0.09072581
      height: 0.08039216
    vert:
      serializedVersion: 2
      x: 1
      y: -21
      width: 45
      height: -41
    advance: 44
    flipped: 0
  - serializedVersion: 2
    index: 118
    uv:
      serializedVersion: 2
      x: 0.06451613
      y: 0.10980391
      width: 0.0826613
      height: 0.078431375
    vert:
      serializedVersion: 2
      x: 3
      y: -21
      width: 41
      height: -40
    advance: 39
    flipped: 0
  - serializedVersion: 2
    index: 119
    uv:
      serializedVersion: 2
      x: 0.1391129
      y: 0.22156864
      width: 0.12903224
      height: 0.07843137
    vert:
      serializedVersion: 2
      x: 2
      y: -21
      width: 64
      height: -40
    advance: 59
    flipped: 0
  - serializedVersion: 2
    index: 120
    uv:
      serializedVersion: 2
      x: 0.14919356
      y: 0.32941175
      width: 0.1048387
      height: 0.07843137
    vert:
      serializedVersion: 2
      x: -5
      y: -21
      width: 52
      height: -40
    advance: 39
    flipped: 0
  - serializedVersion: 2
    index: 121
    uv:
      serializedVersion: 2
      x: 0.14919356
      y: 0.10784312
      width: 0.09677419
      height: 0.11176471
    vert:
      serializedVersion: 2
      x: -4
      y: -21
      width: 48
      height: -57
    advance: 39
    flipped: 0
  - serializedVersion: 2
    index: 122
    uv:
      serializedVersion: 2
      x: 0.18145162
      y: 0.41764706
      width: 0.0826613
      height: 0.07843137
    vert:
      serializedVersion: 2
      x: -3
      y: -21
      width: 41
      height: -40
    advance: 34
    flipped: 0
  - serializedVersion: 2
    index: 65
    uv:
      serializedVersion: 2
      x: 0.09475806
      y: 0.0019607767
      width: 0.09879032
      height: 0.10392157
    vert:
      serializedVersion: 2
      x: -4
      y: -8
      width: 49
      height: -53
    advance: 46
    flipped: 0
  - serializedVersion: 2
    index: 66
    uv:
      serializedVersion: 2
      x: 0.19556452
      y: 0.0019607767
      width: 0.10282259
      height: 0.10392157
    vert:
      serializedVersion: 2
      x: 0
      y: -8
      width: 51
      height: -53
    advance: 48
    flipped: 0
  - serializedVersion: 2
    index: 67
    uv:
      serializedVersion: 2
      x: 0.24798387
      y: 0.113725476
      width: 0.10282257
      height: 0.105882354
    vert:
      serializedVersion: 2
      x: 2
      y: -7
      width: 51
      height: -54
    advance: 48
    flipped: 0
  - serializedVersion: 2
    index: 68
    uv:
      serializedVersion: 2
      x: 0.30040324
      y: 0.007843159
      width: 0.1048387
      height: 0.10392157
    vert:
      serializedVersion: 2
      x: 0
      y: -8
      width: 52
      height: -53
    advance: 50
    flipped: 0
  - serializedVersion: 2
    index: 69
    uv:
      serializedVersion: 2
      x: 0.25604838
      y: 0.3117647
      width: 0.09677419
      height: 0.10392156
    vert:
      serializedVersion: 2
      x: 0
      y: -8
      width: 48
      height: -53
    advance: 41
    flipped: 0
  - serializedVersion: 2
    index: 70
    uv:
      serializedVersion: 2
      x: 0.21572581
      y: 0.53137255
      width: 0.09475806
      height: 0.10392159
    vert:
      serializedVersion: 2
      x: 0
      y: -8
      width: 47
      height: -53
    advance: 39
    flipped: 0
  - serializedVersion: 2
    index: 71
    uv:
      serializedVersion: 2
      x: 0.26612905
      y: 0.42352942
      width: 0.10282257
      height: 0.10588238
    vert:
      serializedVersion: 2
      x: 2
      y: -7
      width: 51
      height: -54
    advance: 51
    flipped: 0
  - serializedVersion: 2
    index: 72
    uv:
      serializedVersion: 2
      x: 0.29435483
      y: 0.672549
      width: 0.114919364
      height: 0.10392159
    vert:
      serializedVersion: 2
      x: 0
      y: -8
      width: 57
      height: -53
    advance: 52
    flipped: 0
  - serializedVersion: 2
    index: 73
    uv:
      serializedVersion: 2
      x: 0.31048387
      y: 0.8098039
      width: 0.05645162
      height: 0.10392159
    vert:
      serializedVersion: 2
      x: 0
      y: -8
      width: 28
      height: -53
    advance: 23
    flipped: 0
  - serializedVersion: 2
    index: 74
    uv:
      serializedVersion: 2
      x: 0.3125
      y: 0.56470585
      width: 0.08870968
      height: 0.10588235
    vert:
      serializedVersion: 2
      x: -3
      y: -8
      width: 44
      height: -54
    advance: 35
    flipped: 0
  - serializedVersion: 2
    index: 75
    uv:
      serializedVersion: 2
      x: 0.35282257
      y: 0.20588234
      width: 0.11895162
      height: 0.10392156
    vert:
      serializedVersion: 2
      x: 0
      y: -8
      width: 59
      height: -53
    advance: 48
    flipped: 0
  - serializedVersion: 2
    index: 76
    uv:
      serializedVersion: 2
      x: 0.3548387
      y: 0.31764707
      width: 0.0826613
      height: 0.10392156
    vert:
      serializedVersion: 2
      x: 0
      y: -8
      width: 41
      height: -53
    advance: 41
    flipped: 0
  - serializedVersion: 2
    index: 77
    uv:
      serializedVersion: 2
      x: 0.37096775
      y: 0.45882353
      width: 0.12903225
      height: 0.10392156
    vert:
      serializedVersion: 2
      x: 0
      y: -8
      width: 64
      height: -53
    advance: 59
    flipped: 0
  - serializedVersion: 2
    index: 78
    uv:
      serializedVersion: 2
      x: 0.4032258
      y: 0.56666666
      width: 0.114919335
      height: 0.10392159
    vert:
      serializedVersion: 2
      x: 0
      y: -8
      width: 57
      height: -53
    advance: 52
    flipped: 0
  - serializedVersion: 2
    index: 79
    uv:
      serializedVersion: 2
      x: 0.43951613
      y: 0.3509804
      width: 0.106854856
      height: 0.10588235
    vert:
      serializedVersion: 2
      x: 2
      y: -7
      width: 53
      height: -54
    advance: 53
    flipped: 0
  - serializedVersion: 2
    index: 80
    uv:
      serializedVersion: 2
      x: 0.5020161
      y: 0.46078432
      width: 0.09677416
      height: 0.10392159
    vert:
      serializedVersion: 2
      x: 0
      y: -8
      width: 48
      height: -53
    advance: 43
    flipped: 0
  - serializedVersion: 2
    index: 81
    uv:
      serializedVersion: 2
      x: 0.40725806
      y: 0.0980392
      width: 0.106854826
      height: 0.105882354
    vert:
      serializedVersion: 2
      x: 2
      y: -7
      width: 53
      height: -54
    advance: 53
    flipped: 0
  - serializedVersion: 2
    index: 82
    uv:
      serializedVersion: 2
      x: 0.47379032
      y: 0.24509802
      width: 0.09879032
      height: 0.10392156
    vert:
      serializedVersion: 2
      x: 0
      y: -8
      width: 49
      height: -53
    advance: 47
    flipped: 0
  - serializedVersion: 2
    index: 83
    uv:
      serializedVersion: 2
      x: 0.5483871
      y: 0.35098037
      width: 0.100806475
      height: 0.10784313
    vert:
      serializedVersion: 2
      x: -2
      y: -7
      width: 50
      height: -55
    advance: 43
    flipped: 0
  - serializedVersion: 2
    index: 84
    uv:
      serializedVersion: 2
      x: 0.36895162
      y: 0.89411765
      width: 0.09475806
      height: 0.10392159
    vert:
      serializedVersion: 2
      x: 5
      y: -8
      width: 47
      height: -53
    advance: 43
    flipped: 0
  - serializedVersion: 2
    index: 85
    uv:
      serializedVersion: 2
      x: 0.36895162
      y: 0.7862745
      width: 0.106854856
      height: 0.10588235
    vert:
      serializedVersion: 2
      x: 3
      y: -8
      width: 53
      height: -54
    advance: 51
    flipped: 0
  - serializedVersion: 2
    index: 86
    uv:
      serializedVersion: 2
      x: 0.4657258
      y: 0.89411765
      width: 0.100806445
      height: 0.10392159
    vert:
      serializedVersion: 2
      x: 5
      y: -8
      width: 50
      height: -53
    advance: 46
    flipped: 0
  - serializedVersion: 2
    index: 87
    uv:
      serializedVersion: 2
      x: 0.41129032
      y: 0.68039215
      width: 0.15725806
      height: 0.10392159
    vert:
      serializedVersion: 2
      x: 5
      y: -8
      width: 78
      height: -53
    advance: 72
    flipped: 0
  - serializedVersion: 2
    index: 88
    uv:
      serializedVersion: 2
      x: 0.47782257
      y: 0.7882353
      width: 0.12499997
      height: 0.10392159
    vert:
      serializedVersion: 2
      x: -5
      y: -8
      width: 62
      height: -53
    advance: 45
    flipped: 0
  - serializedVersion: 2
    index: 89
    uv:
      serializedVersion: 2
      x: 0.5685484
      y: 0.89411765
      width: 0.100806475
      height: 0.10392159
    vert:
      serializedVersion: 2
      x: 5
      y: -8
      width: 50
      height: -53
    advance: 45
    flipped: 0
  - serializedVersion: 2
    index: 90
    uv:
      serializedVersion: 2
      x: 0.5201613
      y: 0.5745098
      width: 0.10483873
      height: 0.10392159
    vert:
      serializedVersion: 2
      x: -3
      y: -8
      width: 52
      height: -53
    advance: 43
    flipped: 0
  - serializedVersion: 2
    index: 33
    uv:
      serializedVersion: 2
      x: 0.5705645
      y: 0.68039215
      width: 0.05443549
      height: 0.10588235
    vert:
      serializedVersion: 2
      x: 0
      y: -7
      width: 27
      height: -54
    advance: 24
    flipped: 0
  - serializedVersion: 2
    index: 8470
    uv:
      serializedVersion: 2
      x: 0.6008065
      y: 0.46666667
      width: 0.16935486
      height: 0.10588238
    vert:
      serializedVersion: 2
      x: 0
      y: -7
      width: 84
      height: -54
    advance: 78
    flipped: 0
  - serializedVersion: 2
    index: 59
    uv:
      serializedVersion: 2
      x: 0.6048387
      y: 0.7921569
      width: 0.046370983
      height: 0.100000024
    vert:
      serializedVersion: 2
      x: 0
      y: -21
      width: 23
      height: -51
    advance: 22
    flipped: 0
  - serializedVersion: 2
    index: 37
    uv:
      serializedVersion: 2
      x: 0.6270161
      y: 0.68039215
      width: 0.11088711
      height: 0.109803915
    vert:
      serializedVersion: 2
      x: 5
      y: -7
      width: 55
      height: -56
    advance: 59
    flipped: 0
  - serializedVersion: 2
    index: 58
    uv:
      serializedVersion: 2
      x: 0.35282257
      y: 0.12549019
      width: 0.044354826
      height: 0.07843137
    vert:
      serializedVersion: 2
      x: 1
      y: -21
      width: 22
      height: -40
    advance: 22
    flipped: 0
  - serializedVersion: 2
    index: 63
    uv:
      serializedVersion: 2
      x: 0.671371
      y: 0.89215684
      width: 0.072580636
      height: 0.10588235
    vert:
      serializedVersion: 2
      x: 2
      y: -7
      width: 36
      height: -54
    advance: 35
    flipped: 0
  - serializedVersion: 2
    index: 42
    uv:
      serializedVersion: 2
      x: 0.098790325
      y: 0.8137255
      width: 0.044354834
      height: 0.043137252
    vert:
      serializedVersion: 2
      x: 8
      y: -7
      width: 22
      height: -22
    advance: 26
    flipped: 0
  - serializedVersion: 2
    index: 40
    uv:
      serializedVersion: 2
      x: 0.516129
      y: 0.11764704
      width: 0.0625
      height: 0.1254902
    vert:
      serializedVersion: 2
      x: 2
      y: -3
      width: 31
      height: -64
    advance: 24
    flipped: 0
  - serializedVersion: 2
    index: 41
    uv:
      serializedVersion: 2
      x: 0.73991936
      y: 0.76666665
      width: 0.060483873
      height: 0.123529434
    vert:
      serializedVersion: 2
      x: -3
      y: -3
      width: 30
      height: -63
    advance: 24
    flipped: 0
  - serializedVersion: 2
    index: 95
    uv:
      serializedVersion: 2
      x: 0.05645161
      y: 0.27254903
      width: 0.05846774
      height: 0.027450979
    vert:
      serializedVersion: 2
      x: -4
      y: -59
      width: 29
      height: -14
    advance: 30
    flipped: 0
  - serializedVersion: 2
    index: 43
    uv:
      serializedVersion: 2
      x: 0.2701613
      y: 0.25686273
      width: 0.05443549
      height: 0.052941173
    vert:
      serializedVersion: 2
      x: 4
      y: -21
      width: 27
      height: -27
    advance: 32
    flipped: 0
  - serializedVersion: 2
    index: 45
    uv:
      serializedVersion: 2
      x: 0.2358871
      y: 0.7490196
      width: 0.054435477
      height: 0.027450979
    vert:
      serializedVersion: 2
      x: 2
      y: -33
      width: 27
      height: -14
    advance: 29
    flipped: 0
  - serializedVersion: 2
    index: 61
    uv:
      serializedVersion: 2
      x: 0.6532258
      y: 0.8372549
      width: 0.050403237
      height: 0.052941203
    vert:
      serializedVersion: 2
      x: 6
      y: -26
      width: 25
      height: -27
    advance: 35
    flipped: 0
  - serializedVersion: 2
    index: 46
    uv:
      serializedVersion: 2
      x: 0.31048387
      y: 0.77843136
      width: 0.03427419
      height: 0.029411793
    vert:
      serializedVersion: 2
      x: -1
      y: -45
      width: 17
      height: -15
    advance: 18
    flipped: 0
  - serializedVersion: 2
    index: 44
    uv:
      serializedVersion: 2
      x: 0.26814517
      y: 0.8607843
      width: 0.036290318
      height: 0.052941203
    vert:
      serializedVersion: 2
      x: -2
      y: -45
      width: 18
      height: -27
    advance: 18
    flipped: 0
  - serializedVersion: 2
    index: 47
    uv:
      serializedVersion: 2
      x: 0.6270161
      y: 0.5745098
      width: 0.13306451
      height: 0.10392159
    vert:
      serializedVersion: 2
      x: -2
      y: -8
      width: 66
      height: -53
    advance: 56
    flipped: 0
  - serializedVersion: 2
    index: 124
    uv:
      serializedVersion: 2
      x: 0.76209676
      y: 0.6313726
      width: 0.02822578
      height: 0.13333333
    vert:
      serializedVersion: 2
      x: 7
      y: -3
      width: 14
      height: -68
    advance: 26
    flipped: 0
  - serializedVersion: 2
    index: 34
    uv:
      serializedVersion: 2
      x: 0.6532258
      y: 0.7980392
      width: 0.066532254
      height: 0.03725493
    vert:
      serializedVersion: 2
      x: 7
      y: -6
      width: 33
      height: -19
    advance: 34
    flipped: 0
  - serializedVersion: 2
    index: 39
    uv:
      serializedVersion: 2
      x: 0.47379032
      y: 0.20588234
      width: 0.036290318
      height: 0.0372549
    vert:
      serializedVersion: 2
      x: 7
      y: -6
      width: 18
      height: -19
    advance: 19
    flipped: 0
  - serializedVersion: 2
    index: 64
    uv:
      serializedVersion: 2
      x: 0.516129
      y: 0.005882375
      width: 0.114919364
      height: 0.10980392
    vert:
      serializedVersion: 2
      x: 1
      y: -15
      width: 57
      height: -56
    advance: 59
    flipped: 0
  - serializedVersion: 2
    index: 35
    uv:
      serializedVersion: 2
      x: 0.57459676
      y: 0.24509802
      width: 0.11088711
      height: 0.10392156
    vert:
      serializedVersion: 2
      x: 1
      y: -8
      width: 55
      height: -53
    advance: 52
    flipped: 0
  - serializedVersion: 2
    index: 36
    uv:
      serializedVersion: 2
      x: 0.6330645
      y: 0.10588233
      width: 0.100806475
      height: 0.13725491
    vert:
      serializedVersion: 2
      x: -1
      y: 0
      width: 50
      height: -70
    advance: 45
    flipped: 0
  - serializedVersion: 2
    index: 94
    uv:
      serializedVersion: 2
      x: 0.40725806
      y: 0.03529414
      width: 0.086693555
      height: 0.060784314
    vert:
      serializedVersion: 2
      x: 3
      y: -8
      width: 43
      height: -31
    advance: 45
    flipped: 0
  - serializedVersion: 2
    index: 38
    uv:
      serializedVersion: 2
      x: 0.65120965
      y: 0.35686275
      width: 0.1028226
      height: 0.10784313
    vert:
      serializedVersion: 2
      x: 1
      y: -7
      width: 51
      height: -55
    advance: 52
    flipped: 0
  - serializedVersion: 2
    index: 123
    uv:
      serializedVersion: 2
      x: 0.7358871
      y: 0.24117649
      width: 0.060483873
      height: 0.11372548
    vert:
      serializedVersion: 2
      x: 2
      y: -5
      width: 30
      height: -58
    advance: 26
    flipped: 0
  - serializedVersion: 2
    index: 125
    uv:
      serializedVersion: 2
      x: 0.7358871
      y: 0.12549019
      width: 0.060483873
      height: 0.11372548
    vert:
      serializedVersion: 2
      x: -2
      y: -5
      width: 30
      height: -58
    advance: 26
    flipped: 0
  - serializedVersion: 2
    index: 91
    uv:
      serializedVersion: 2
      x: 0.7358871
      y: 0.009803943
      width: 0.06451613
      height: 0.11372549
    vert:
      serializedVersion: 2
      x: -1
      y: -5
      width: 32
      height: -58
    advance: 25
    flipped: 0
  - serializedVersion: 2
    index: 93
    uv:
      serializedVersion: 2
      x: 0.7721774
      y: 0.5156863
      width: 0.06451613
      height: 0.11372548
    vert:
      serializedVersion: 2
      x: -2
      y: -5
      width: 32
      height: -58
    advance: 25
    flipped: 0
  - serializedVersion: 2
    index: 48
    uv:
      serializedVersion: 2
      x: 0.6330645
      y: 0.013725512
      width: 0.080645144
      height: 0.09019608
    vert:
      serializedVersion: 2
      x: 2
      y: -16
      width: 40
      height: -46
    advance: 43
    flipped: 0
  - serializedVersion: 2
    index: 49
    uv:
      serializedVersion: 2
      x: 0.74596775
      y: 0.9137255
      width: 0.07661289
      height: 0.08431375
    vert:
      serializedVersion: 2
      x: 0
      y: -18
      width: 38
      height: -43
    advance: 38
    flipped: 0
  - serializedVersion: 2
    index: 50
    uv:
      serializedVersion: 2
      x: 0.7560484
      y: 0.37843138
      width: 0.09072584
      height: 0.086274505
    vert:
      serializedVersion: 2
      x: -2
      y: -17
      width: 45
      height: -44
    advance: 42
    flipped: 0
  - serializedVersion: 2
    index: 51
    uv:
      serializedVersion: 2
      x: 0.7923387
      y: 0.65882355
      width: 0.092741966
      height: 0.10588235
    vert:
      serializedVersion: 2
      x: -4
      y: -17
      width: 46
      height: -54
    advance: 40
    flipped: 0
  - serializedVersion: 2
    index: 52
    uv:
      serializedVersion: 2
      x: 0.80241936
      y: 0.8098039
      width: 0.0846774
      height: 0.10196078
    vert:
      serializedVersion: 2
      x: -3
      y: -18
      width: 42
      height: -52
    advance: 41
    flipped: 0
  - serializedVersion: 2
    index: 53
    uv:
      serializedVersion: 2
      x: 0.83870965
      y: 0.5509804
      width: 0.08870965
      height: 0.10588235
    vert:
      serializedVersion: 2
      x: -4
      y: -18
      width: 44
      height: -54
    advance: 39
    flipped: 0
  - serializedVersion: 2
    index: 54
    uv:
      serializedVersion: 2
      x: 0.88709676
      y: 0.7
      width: 0.086693525
      height: 0.10784316
    vert:
      serializedVersion: 2
      x: 3
      y: -7
      width: 43
      height: -55
    advance: 43
    flipped: 0
  - serializedVersion: 2
    index: 55
    uv:
      serializedVersion: 2
      x: 0.8891129
      y: 0.89411765
      width: 0.10887098
      height: 0.10392159
    vert:
      serializedVersion: 2
      x: -4
      y: -17
      width: 54
      height: -53
    advance: 42
    flipped: 0
  - serializedVersion: 2
    index: 56
    uv:
      serializedVersion: 2
      x: 0.7983871
      y: 0.27058822
      width: 0.086693525
      height: 0.10588235
    vert:
      serializedVersion: 2
      x: 1
      y: -8
      width: 43
      height: -54
    advance: 43
    flipped: 0
  - serializedVersion: 2
    index: 57
    uv:
      serializedVersion: 2
      x: 0.7983871
      y: 0.16078433
      width: 0.08870965
      height: 0.10784313
    vert:
      serializedVersion: 2
      x: -3
      y: -18
      width: 44
      height: -55
    advance: 41
    flipped: 0
  - serializedVersion: 2
    index: 32
    uv:
      serializedVersion: 2
      x: 0
      y: 1
      width: 0
      height: 0
    vert:
      serializedVersion: 2
      x: -3
      y: -18
      width: 0
      height: 0
    advance: 16
    flipped: 0
  m_Texture: {fileID: 0}
  m_KerningValues: []
  m_PixelScale: 0.1
  m_FontData: 
  m_FontSize: 72
  m_Ascent: 0
  m_Descent: 0
  m_DefaultStyle: 0
  m_FontNames: []
  m_FallbackFonts: []
  m_FontRenderingMode: 0
--- !u!21 &21000011863069912
Material:
  serializedVersion: 6
  m_ObjectHideFlags: 0
  m_PrefabParentObject: {fileID: 0}
  m_PrefabInternal: {fileID: 0}
  m_Name: Font Material
  m_Shader: {fileID: 10770, guid: 0000000000000000f000000000000000, type: 0}
  m_ShaderKeywords: 
  m_LightmapFlags: 5
  m_CustomRenderQueue: -1
  stringTagMap: {}
  m_SavedProperties:
    serializedVersion: 2
    m_TexEnvs:
    - first:
        name: _MainTex
      second:
        m_Texture: {fileID: 2800000, guid: 309044bbd53224f99b227c6be3898802, type: 3}
        m_Scale: {x: 1, y: 1}
        m_Offset: {x: 0, y: 0}
    m_Floats:
    - first:
        name: _ColorMask
      second: 15
    - first:
        name: _Stencil
      second: 0
    - first:
        name: _StencilComp
      second: 8
    - first:
        name: _StencilOp
      second: 0
    - first:
        name: _StencilReadMask
      second: 255
    - first:
        name: _StencilWriteMask
      second: 255
    - first:
        name: _UseUIAlphaClip
      second: 0
    m_Colors:
    - first:
        name: _Color
      second: {r: 1, g: 1, b: 1, a: 1}
