%YAML 1.1
%TAG !u! tag:unity3d.com,2011:
--- !u!128 &12800000
Font:
  m_ObjectHideFlags: 0
  m_PrefabParentObject: {fileID: 0}
  m_PrefabInternal: {fileID: 0}
  m_Name: Raleway_white
  serializedVersion: 5
  m_AsciiStartOffset: 0
  m_Tracking: 1
  m_LineSpacing: 85
  m_CharacterSpacing: 0
  m_CharacterPadding: 1
  m_ConvertCase: 0
  m_DefaultMaterial: {fileID: 21000011202548436}
  m_CharacterRects:
  - serializedVersion: 2
    index: 97
    uv:
      serializedVersion: 2
      x: 0.002074689
      y: 0.9199219
      width: 0.093361
      height: 0.078125
    vert:
      serializedVersion: 2
      x: 1
      y: -20
      width: 45
      height: -40
    advance: 47
    flipped: 0
  - serializedVersion: 2
    index: 98
    uv:
      serializedVersion: 2
      x: 0.002074689
      y: 0.8125
      width: 0.093361
      height: 0.10546875
    vert:
      serializedVersion: 2
      x: -1
      y: -6
      width: 45
      height: -54
    advance: 45
    flipped: 0
  - serializedVersion: 2
    index: 99
    uv:
      serializedVersion: 2
      x: 0.002074689
      y: 0.7324219
      width: 0.08506224
      height: 0.078125
    vert:
      serializedVersion: 2
      x: 0
      y: -20
      width: 41
      height: -40
    advance: 40
    flipped: 0
  - serializedVersion: 2
    index: 100
    uv:
      serializedVersion: 2
      x: 0.002074689
      y: 0.625
      width: 0.099585064
      height: 0.10546875
    vert:
      serializedVersion: 2
      x: 1
      y: -6
      width: 48
      height: -54
    advance: 46
    flipped: 0
  - serializedVersion: 2
    index: 101
    uv:
      serializedVersion: 2
      x: 0.08921162
      y: 0.7324219
      width: 0.082987554
      height: 0.078125
    vert:
      serializedVersion: 2
      x: 1
      y: -20
      width: 40
      height: -40
    advance: 41
    flipped: 0
  - serializedVersion: 2
    index: 102
    uv:
      serializedVersion: 2
      x: 0.097510375
      y: 0.86328125
      width: 0.07883818
      height: 0.13476562
    vert:
      serializedVersion: 2
      x: -2
      y: -5
      width: 38
      height: -69
    advance: 28
    flipped: 0
  - serializedVersion: 2
    index: 103
    uv:
      serializedVersion: 2
      x: 0.002074689
      y: 0.515625
      width: 0.10373444
      height: 0.107421875
    vert:
      serializedVersion: 2
      x: -5
      y: -20
      width: 50
      height: -55
    advance: 45
    flipped: 0
  - serializedVersion: 2
    index: 104
    uv:
      serializedVersion: 2
      x: 0.10373444
      y: 0.6269531
      width: 0.08921162
      height: 0.103515625
    vert:
      serializedVersion: 2
      x: -1
      y: -6
      width: 43
      height: -53
    advance: 43
    flipped: 0
  - serializedVersion: 2
    index: 105
    uv:
      serializedVersion: 2
      x: 0.17427386
      y: 0.7578125
      width: 0.051867217
      height: 0.103515625
    vert:
      serializedVersion: 2
      x: -1
      y: -6
      width: 25
      height: -53
    advance: 21
    flipped: 0
  - serializedVersion: 2
    index: 106
    uv:
      serializedVersion: 2
      x: 0.17842324
      y: 0.8652344
      width: 0.08091287
      height: 0.1328125
    vert:
      serializedVersion: 2
      x: -14
      y: -6
      width: 39
      height: -68
    advance: 21
    flipped: 0
  - serializedVersion: 2
    index: 107
    uv:
      serializedVersion: 2
      x: 0.002074689
      y: 0.41015625
      width: 0.08713693
      height: 0.103515625
    vert:
      serializedVersion: 2
      x: -1
      y: -6
      width: 42
      height: -53
    advance: 42
    flipped: 0
  - serializedVersion: 2
    index: 108
    uv:
      serializedVersion: 2
      x: 0.002074689
      y: 0.30273438
      width: 0.047717843
      height: 0.10546875
    vert:
      serializedVersion: 2
      x: 0
      y: -6
      width: 23
      height: -54
    advance: 25
    flipped: 0
  - serializedVersion: 2
    index: 109
    uv:
      serializedVersion: 2
      x: 0.002074689
      y: 0.22460938
      width: 0.13485478
      height: 0.076171875
    vert:
      serializedVersion: 2
      x: -1
      y: -20
      width: 65
      height: -39
    advance: 65
    flipped: 0
  - serializedVersion: 2
    index: 110
    uv:
      serializedVersion: 2
      x: 0.05186722
      y: 0.33203125
      width: 0.08921163
      height: 0.076171875
    vert:
      serializedVersion: 2
      x: -1
      y: -20
      width: 43
      height: -39
    advance: 43
    flipped: 0
  - serializedVersion: 2
    index: 111
    uv:
      serializedVersion: 2
      x: 0.09128631
      y: 0.43554688
      width: 0.08506224
      height: 0.078125
    vert:
      serializedVersion: 2
      x: 1
      y: -20
      width: 41
      height: -40
    advance: 43
    flipped: 0
  - serializedVersion: 2
    index: 112
    uv:
      serializedVersion: 2
      x: 0.10788382
      y: 0.51953125
      width: 0.099585064
      height: 0.10546875
    vert:
      serializedVersion: 2
      x: -4
      y: -20
      width: 48
      height: -54
    advance: 45
    flipped: 0
  - serializedVersion: 2
    index: 113
    uv:
      serializedVersion: 2
      x: 0.19502075
      y: 0.6503906
      width: 0.093361005
      height: 0.10546875
    vert:
      serializedVersion: 2
      x: 1
      y: -20
      width: 45
      height: -54
    advance: 45
    flipped: 0
  - serializedVersion: 2
    index: 114
    uv:
      serializedVersion: 2
      x: 0.22821577
      y: 0.7871094
      width: 0.06846474
      height: 0.076171875
    vert:
      serializedVersion: 2
      x: -1
      y: -20
      width: 33
      height: -39
    advance: 29
    flipped: 0
  - serializedVersion: 2
    index: 115
    uv:
      serializedVersion: 2
      x: 0.2614108
      y: 0.9199219
      width: 0.07468879
      height: 0.078125
    vert:
      serializedVersion: 2
      x: -2
      y: -20
      width: 36
      height: -40
    advance: 35
    flipped: 0
  - serializedVersion: 2
    index: 116
    uv:
      serializedVersion: 2
      x: 0.002074689
      y: 0.123046875
      width: 0.058091287
      height: 0.099609375
    vert:
      serializedVersion: 2
      x: 3
      y: -9
      width: 28
      height: -51
    advance: 30
    flipped: 0
  - serializedVersion: 2
    index: 117
    uv:
      serializedVersion: 2
      x: 0.002074689
      y: 0.044921875
      width: 0.08921162
      height: 0.076171875
    vert:
      serializedVersion: 2
      x: 1
      y: -21
      width: 43
      height: -39
    advance: 44
    flipped: 0
  - serializedVersion: 2
    index: 118
    uv:
      serializedVersion: 2
      x: 0.062240664
      y: 0.1484375
      width: 0.08091287
      height: 0.07421875
    vert:
      serializedVersion: 2
      x: 3
      y: -21
      width: 39
      height: -38
    advance: 39
    flipped: 0
  - serializedVersion: 2
    index: 119
    uv:
      serializedVersion: 2
      x: 0.13900416
      y: 0.25585938
      width: 0.12655602
      height: 0.07421875
    vert:
      serializedVersion: 2
      x: 2
      y: -21
      width: 61
      height: -38
    advance: 59
    flipped: 0
  - serializedVersion: 2
    index: 120
    uv:
      serializedVersion: 2
      x: 0.14315353
      y: 0.359375
      width: 0.09751038
      height: 0.07421875
    vert:
      serializedVersion: 2
      x: -5
      y: -21
      width: 47
      height: -38
    advance: 39
    flipped: 0
  - serializedVersion: 2
    index: 121
    uv:
      serializedVersion: 2
      x: 0.093361
      y: 0.0390625
      width: 0.09543569
      height: 0.107421875
    vert:
      serializedVersion: 2
      x: -4
      y: -21
      width: 46
      height: -55
    advance: 39
    flipped: 0
  - serializedVersion: 2
    index: 122
    uv:
      serializedVersion: 2
      x: 0.17842324
      y: 0.44335938
      width: 0.078838184
      height: 0.07421875
    vert:
      serializedVersion: 2
      x: -3
      y: -21
      width: 38
      height: -38
    advance: 34
    flipped: 0
  - serializedVersion: 2
    index: 65
    uv:
      serializedVersion: 2
      x: 0.14522822
      y: 0.15429688
      width: 0.095435694
      height: 0.099609375
    vert:
      serializedVersion: 2
      x: -4
      y: -8
      width: 46
      height: -51
    advance: 46
    flipped: 0
  - serializedVersion: 2
    index: 66
    uv:
      serializedVersion: 2
      x: 0.24273859
      y: 0.34179688
      width: 0.09958507
      height: 0.099609375
    vert:
      serializedVersion: 2
      x: 0
      y: -8
      width: 48
      height: -51
    advance: 48
    flipped: 0
  - serializedVersion: 2
    index: 67
    uv:
      serializedVersion: 2
      x: 0.20954357
      y: 0.546875
      width: 0.10165976
      height: 0.1015625
    vert:
      serializedVersion: 2
      x: 2
      y: -7
      width: 49
      height: -52
    advance: 48
    flipped: 0
  - serializedVersion: 2
    index: 68
    uv:
      serializedVersion: 2
      x: 0.2593361
      y: 0.4453125
      width: 0.10373443
      height: 0.099609375
    vert:
      serializedVersion: 2
      x: 0
      y: -8
      width: 50
      height: -51
    advance: 50
    flipped: 0
  - serializedVersion: 2
    index: 69
    uv:
      serializedVersion: 2
      x: 0.29045644
      y: 0.6855469
      width: 0.09336099
      height: 0.099609375
    vert:
      serializedVersion: 2
      x: 0
      y: -8
      width: 45
      height: -51
    advance: 41
    flipped: 0
  - serializedVersion: 2
    index: 70
    uv:
      serializedVersion: 2
      x: 0.2987552
      y: 0.8183594
      width: 0.09336099
      height: 0.099609375
    vert:
      serializedVersion: 2
      x: 0
      y: -8
      width: 45
      height: -51
    advance: 39
    flipped: 0
  - serializedVersion: 2
    index: 71
    uv:
      serializedVersion: 2
      x: 0.31327802
      y: 0.58203125
      width: 0.101659745
      height: 0.1015625
    vert:
      serializedVersion: 2
      x: 2
      y: -7
      width: 49
      height: -52
    advance: 51
    flipped: 0
  - serializedVersion: 2
    index: 72
    uv:
      serializedVersion: 2
      x: 0.38589212
      y: 0.7167969
      width: 0.11410788
      height: 0.099609375
    vert:
      serializedVersion: 2
      x: 0
      y: -8
      width: 55
      height: -51
    advance: 52
    flipped: 0
  - serializedVersion: 2
    index: 73
    uv:
      serializedVersion: 2
      x: 0.19087137
      y: 0.052734375
      width: 0.051867217
      height: 0.099609375
    vert:
      serializedVersion: 2
      x: 0
      y: -8
      width: 25
      height: -51
    advance: 23
    flipped: 0
  - serializedVersion: 2
    index: 74
    uv:
      serializedVersion: 2
      x: 0.39419088
      y: 0.8964844
      width: 0.085062236
      height: 0.1015625
    vert:
      serializedVersion: 2
      x: -3
      y: -8
      width: 41
      height: -52
    advance: 35
    flipped: 0
  - serializedVersion: 2
    index: 75
    uv:
      serializedVersion: 2
      x: 0.24273859
      y: 0.15429688
      width: 0.11410789
      height: 0.099609375
    vert:
      serializedVersion: 2
      x: 0
      y: -8
      width: 55
      height: -51
    advance: 48
    flipped: 0
  - serializedVersion: 2
    index: 76
    uv:
      serializedVersion: 2
      x: 0.24481328
      y: 0.052734375
      width: 0.08091287
      height: 0.099609375
    vert:
      serializedVersion: 2
      x: 0
      y: -8
      width: 39
      height: -51
    advance: 41
    flipped: 0
  - serializedVersion: 2
    index: 77
    uv:
      serializedVersion: 2
      x: 0.32780084
      y: 0.052734375
      width: 0.12655601
      height: 0.099609375
    vert:
      serializedVersion: 2
      x: 0
      y: -8
      width: 61
      height: -51
    advance: 59
    flipped: 0
  - serializedVersion: 2
    index: 78
    uv:
      serializedVersion: 2
      x: 0.4813278
      y: 0.8984375
      width: 0.11410788
      height: 0.099609375
    vert:
      serializedVersion: 2
      x: 0
      y: -8
      width: 55
      height: -51
    advance: 52
    flipped: 0
  - serializedVersion: 2
    index: 79
    uv:
      serializedVersion: 2
      x: 0.34439835
      y: 0.34179688
      width: 0.10580912
      height: 0.1015625
    vert:
      serializedVersion: 2
      x: 2
      y: -7
      width: 51
      height: -52
    advance: 53
    flipped: 0
  - serializedVersion: 2
    index: 80
    uv:
      serializedVersion: 2
      x: 0.36514524
      y: 0.48046875
      width: 0.09336099
      height: 0.099609375
    vert:
      serializedVersion: 2
      x: 0
      y: -8
      width: 45
      height: -51
    advance: 43
    flipped: 0
  - serializedVersion: 2
    index: 81
    uv:
      serializedVersion: 2
      x: 0.41701245
      y: 0.61328125
      width: 0.10580915
      height: 0.1015625
    vert:
      serializedVersion: 2
      x: 2
      y: -7
      width: 51
      height: -52
    advance: 53
    flipped: 0
  - serializedVersion: 2
    index: 82
    uv:
      serializedVersion: 2
      x: 0.5020747
      y: 0.796875
      width: 0.0975104
      height: 0.099609375
    vert:
      serializedVersion: 2
      x: 0
      y: -8
      width: 47
      height: -51
    advance: 47
    flipped: 0
  - serializedVersion: 2
    index: 83
    uv:
      serializedVersion: 2
      x: 0.35892117
      y: 0.23632812
      width: 0.09958506
      height: 0.103515625
    vert:
      serializedVersion: 2
      x: -2
      y: -7
      width: 48
      height: -53
    advance: 43
    flipped: 0
  - serializedVersion: 2
    index: 84
    uv:
      serializedVersion: 2
      x: 0.5975104
      y: 0.8984375
      width: 0.0912863
      height: 0.099609375
    vert:
      serializedVersion: 2
      x: 5
      y: -8
      width: 44
      height: -51
    advance: 43
    flipped: 0
  - serializedVersion: 2
    index: 85
    uv:
      serializedVersion: 2
      x: 0.45228216
      y: 0.37695312
      width: 0.10580912
      height: 0.1015625
    vert:
      serializedVersion: 2
      x: 3
      y: -8
      width: 51
      height: -52
    advance: 51
    flipped: 0
  - serializedVersion: 2
    index: 86
    uv:
      serializedVersion: 2
      x: 0.46058092
      y: 0.51171875
      width: 0.099585086
      height: 0.099609375
    vert:
      serializedVersion: 2
      x: 5
      y: -8
      width: 48
      height: -51
    advance: 46
    flipped: 0
  - serializedVersion: 2
    index: 87
    uv:
      serializedVersion: 2
      x: 0.52489626
      y: 0.6953125
      width: 0.15560168
      height: 0.099609375
    vert:
      serializedVersion: 2
      x: 5
      y: -8
      width: 75
      height: -51
    advance: 72
    flipped: 0
  - serializedVersion: 2
    index: 88
    uv:
      serializedVersion: 2
      x: 0.6016598
      y: 0.796875
      width: 0.118257284
      height: 0.099609375
    vert:
      serializedVersion: 2
      x: -5
      y: -8
      width: 57
      height: -51
    advance: 45
    flipped: 0
  - serializedVersion: 2
    index: 89
    uv:
      serializedVersion: 2
      x: 0.69087136
      y: 0.8984375
      width: 0.0975104
      height: 0.099609375
    vert:
      serializedVersion: 2
      x: 5
      y: -8
      width: 47
      height: -51
    advance: 45
    flipped: 0
  - serializedVersion: 2
    index: 90
    uv:
      serializedVersion: 2
      x: 0.45643154
      y: 0.13476562
      width: 0.101659745
      height: 0.099609375
    vert:
      serializedVersion: 2
      x: -3
      y: -8
      width: 49
      height: -51
    advance: 43
    flipped: 0
  - serializedVersion: 2
    index: 33
    uv:
      serializedVersion: 2
      x: 0.45643154
      y: 0.03125
      width: 0.051867217
      height: 0.1015625
    vert:
      serializedVersion: 2
      x: 0
      y: -7
      width: 25
      height: -52
    advance: 24
    flipped: 0
  - serializedVersion: 2
    index: 8470
    uv:
      serializedVersion: 2
      x: 0.5103735
      y: 0.03125
      width: 0.17012447
      height: 0.1015625
    vert:
      serializedVersion: 2
      x: 0
      y: -7
      width: 82
      height: -52
    advance: 78
    flipped: 0
  - serializedVersion: 2
    index: 59
    uv:
      serializedVersion: 2
      x: 0.46058092
      y: 0.27929688
      width: 0.041493803
      height: 0.095703125
    vert:
      serializedVersion: 2
      x: 0
      y: -21
      width: 20
      height: -49
    advance: 22
    flipped: 0
  - serializedVersion: 2
    index: 37
    uv:
      serializedVersion: 2
      x: 0.5041494
      y: 0.27148438
      width: 0.10788381
      height: 0.103515625
    vert:
      serializedVersion: 2
      x: 5
      y: -7
      width: 52
      height: -53
    advance: 59
    flipped: 0
  - serializedVersion: 2
    index: 58
    uv:
      serializedVersion: 2
      x: 0.39419088
      y: 0.8203125
      width: 0.039419085
      height: 0.07421875
    vert:
      serializedVersion: 2
      x: 1
      y: -21
      width: 19
      height: -38
    advance: 22
    flipped: 0
  - serializedVersion: 2
    index: 63
    uv:
      serializedVersion: 2
      x: 0.560166
      y: 0.40820312
      width: 0.070539415
      height: 0.1015625
    vert:
      serializedVersion: 2
      x: 2
      y: -7
      width: 34
      height: -52
    advance: 35
    flipped: 0
  - serializedVersion: 2
    index: 42
    uv:
      serializedVersion: 2
      x: 0.46058092
      y: 0.23828125
      width: 0.041493803
      height: 0.0390625
    vert:
      serializedVersion: 2
      x: 8
      y: -7
      width: 20
      height: -20
    advance: 26
    flipped: 0
  - serializedVersion: 2
    index: 40
    uv:
      serializedVersion: 2
      x: 0.560166
      y: 0.15039062
      width: 0.058091283
      height: 0.119140625
    vert:
      serializedVersion: 2
      x: 2
      y: -3
      width: 28
      height: -61
    advance: 24
    flipped: 0
  - serializedVersion: 2
    index: 41
    uv:
      serializedVersion: 2
      x: 0.6141079
      y: 0.28710938
      width: 0.056016624
      height: 0.119140625
    vert:
      serializedVersion: 2
      x: -3
      y: -3
      width: 27
      height: -61
    advance: 24
    flipped: 0
  - serializedVersion: 2
    index: 95
    uv:
      serializedVersion: 2
      x: 0.14315353
      y: 0.33203125
      width: 0.056016594
      height: 0.025390625
    vert:
      serializedVersion: 2
      x: -4
      y: -59
      width: 27
      height: -13
    advance: 30
    flipped: 0
  - serializedVersion: 2
    index: 43
    uv:
      serializedVersion: 2
      x: 0.097510375
      y: 0.8125
      width: 0.051867224
      height: 0.048828125
    vert:
      serializedVersion: 2
      x: 4
      y: -21
      width: 25
      height: -25
    advance: 32
    flipped: 0
  - serializedVersion: 2
    index: 45
    uv:
      serializedVersion: 2
      x: 0.31327802
      y: 0.5546875
      width: 0.04979253
      height: 0.025390625
    vert:
      serializedVersion: 2
      x: 2
      y: -33
      width: 24
      height: -13
    advance: 29
    flipped: 0
  - serializedVersion: 2
    index: 61
    uv:
      serializedVersion: 2
      x: 0.33817428
      y: 0.9472656
      width: 0.04979253
      height: 0.05078125
    vert:
      serializedVersion: 2
      x: 6
      y: -26
      width: 24
      height: -26
    advance: 35
    flipped: 0
  - serializedVersion: 2
    index: 46
    uv:
      serializedVersion: 2
      x: 0.38589212
      y: 0.6875
      width: 0.029045641
      height: 0.02734375
    vert:
      serializedVersion: 2
      x: -1
      y: -45
      width: 14
      height: -14
    advance: 18
    flipped: 0
  - serializedVersion: 2
    index: 44
    uv:
      serializedVersion: 2
      x: 0.19087137
      y: 0.001953125
      width: 0.03112033
      height: 0.048828125
    vert:
      serializedVersion: 2
      x: -2
      y: -45
      width: 15
      height: -25
    advance: 18
    flipped: 0
  - serializedVersion: 2
    index: 47
    uv:
      serializedVersion: 2
      x: 0.62033194
      y: 0.18554688
      width: 0.1286307
      height: 0.099609375
    vert:
      serializedVersion: 2
      x: -2
      y: -8
      width: 62
      height: -51
    advance: 56
    flipped: 0
  - serializedVersion: 2
    index: 124
    uv:
      serializedVersion: 2
      x: 0.6825726
      y: 0.0546875
      width: 0.024896264
      height: 0.12890625
    vert:
      serializedVersion: 2
      x: 7
      y: -3
      width: 12
      height: -66
    advance: 26
    flipped: 0
  - serializedVersion: 2
    index: 34
    uv:
      serializedVersion: 2
      x: 0.36514524
      y: 0.4453125
      width: 0.06224066
      height: 0.033203125
    vert:
      serializedVersion: 2
      x: 7
      y: -6
      width: 30
      height: -17
    advance: 34
    flipped: 0
  - serializedVersion: 2
    index: 39
    uv:
      serializedVersion: 2
      x: 0.5041494
      y: 0.23632812
      width: 0.03112036
      height: 0.033203125
    vert:
      serializedVersion: 2
      x: 7
      y: -6
      width: 15
      height: -17
    advance: 19
    flipped: 0
  - serializedVersion: 2
    index: 64
    uv:
      serializedVersion: 2
      x: 0.7095436
      y: 0.078125
      width: 0.11410791
      height: 0.10546875
    vert:
      serializedVersion: 2
      x: 1
      y: -15
      width: 55
      height: -54
    advance: 59
    flipped: 0
  - serializedVersion: 2
    index: 35
    uv:
      serializedVersion: 2
      x: 0.56224066
      y: 0.59375
      width: 0.10995853
      height: 0.099609375
    vert:
      serializedVersion: 2
      x: 1
      y: -8
      width: 53
      height: -51
    advance: 52
    flipped: 0
  - serializedVersion: 2
    index: 36
    uv:
      serializedVersion: 2
      x: 0.6327801
      y: 0.45898438
      width: 0.09958506
      height: 0.1328125
    vert:
      serializedVersion: 2
      x: -1
      y: 0
      width: 48
      height: -68
    advance: 45
    flipped: 0
  - serializedVersion: 2
    index: 94
    uv:
      serializedVersion: 2
      x: 0.26763487
      y: 0.28125
      width: 0.08298755
      height: 0.05859375
    vert:
      serializedVersion: 2
      x: 3
      y: -8
      width: 40
      height: -30
    advance: 45
    flipped: 0
  - serializedVersion: 2
    index: 38
    uv:
      serializedVersion: 2
      x: 0.6721992
      y: 0.35351562
      width: 0.101659775
      height: 0.103515625
    vert:
      serializedVersion: 2
      x: 1
      y: -7
      width: 49
      height: -53
    advance: 52
    flipped: 0
  - serializedVersion: 2
    index: 123
    uv:
      serializedVersion: 2
      x: 0.75103736
      y: 0.2421875
      width: 0.058091283
      height: 0.109375
    vert:
      serializedVersion: 2
      x: 2
      y: -5
      width: 28
      height: -56
    advance: 26
    flipped: 0
  - serializedVersion: 2
    index: 125
    uv:
      serializedVersion: 2
      x: 0.6825726
      y: 0.6855469
      width: 0.058091283
      height: 0.109375
    vert:
      serializedVersion: 2
      x: -2
      y: -5
      width: 28
      height: -56
    advance: 26
    flipped: 0
  - serializedVersion: 2
    index: 91
    uv:
      serializedVersion: 2
      x: 0.73443985
      y: 0.5722656
      width: 0.06224066
      height: 0.111328125
    vert:
      serializedVersion: 2
      x: -1
      y: -5
      width: 30
      height: -57
    advance: 25
    flipped: 0
  - serializedVersion: 2
    index: 93
    uv:
      serializedVersion: 2
      x: 0.73443985
      y: 0.45898438
      width: 0.06224066
      height: 0.111328125
    vert:
      serializedVersion: 2
      x: -2
      y: -5
      width: 30
      height: -57
    advance: 25
    flipped: 0
  - serializedVersion: 2
    index: 48
    uv:
      serializedVersion: 2
      x: 0.7219917
      y: 0.8105469
      width: 0.07883817
      height: 0.0859375
    vert:
      serializedVersion: 2
      x: 2
      y: -16
      width: 38
      height: -44
    advance: 43
    flipped: 0
  - serializedVersion: 2
    index: 49
    uv:
      serializedVersion: 2
      x: 0.35892117
      y: 0.15429688
      width: 0.0726141
      height: 0.080078125
    vert:
      serializedVersion: 2
      x: 0
      y: -18
      width: 35
      height: -41
    advance: 38
    flipped: 0
  - serializedVersion: 2
    index: 50
    uv:
      serializedVersion: 2
      x: 0.7904564
      y: 0.9160156
      width: 0.08921164
      height: 0.08203125
    vert:
      serializedVersion: 2
      x: -2
      y: -17
      width: 43
      height: -42
    advance: 42
    flipped: 0
  - serializedVersion: 2
    index: 51
    uv:
      serializedVersion: 2
      x: 0.7759336
      y: 0.35546875
      width: 0.0912863
      height: 0.1015625
    vert:
      serializedVersion: 2
      x: -4
      y: -17
      width: 44
      height: -52
    advance: 40
    flipped: 0
  - serializedVersion: 2
    index: 52
    uv:
      serializedVersion: 2
      x: 0.7427386
      y: 0.7089844
      width: 0.08298755
      height: 0.099609375
    vert:
      serializedVersion: 2
      x: -3
      y: -18
      width: 40
      height: -51
    advance: 41
    flipped: 0
  - serializedVersion: 2
    index: 53
    uv:
      serializedVersion: 2
      x: 0.80290455
      y: 0.8125
      width: 0.085062265
      height: 0.1015625
    vert:
      serializedVersion: 2
      x: -4
      y: -18
      width: 41
      height: -52
    advance: 39
    flipped: 0
  - serializedVersion: 2
    index: 54
    uv:
      serializedVersion: 2
      x: 0.8112033
      y: 0.25
      width: 0.085062265
      height: 0.103515625
    vert:
      serializedVersion: 2
      x: 3
      y: -7
      width: 41
      height: -53
    advance: 43
    flipped: 0
  - serializedVersion: 2
    index: 55
    uv:
      serializedVersion: 2
      x: 0.82572615
      y: 0.1484375
      width: 0.10373443
      height: 0.099609375
    vert:
      serializedVersion: 2
      x: -4
      y: -17
      width: 50
      height: -51
    advance: 42
    flipped: 0
  - serializedVersion: 2
    index: 56
    uv:
      serializedVersion: 2
      x: 0.82572615
      y: 0.044921875
      width: 0.085062265
      height: 0.1015625
    vert:
      serializedVersion: 2
      x: 1
      y: -8
      width: 41
      height: -52
    advance: 43
    flipped: 0
  - serializedVersion: 2
    index: 57
    uv:
      serializedVersion: 2
      x: 0.9128631
      y: 0.04296875
      width: 0.085062265
      height: 0.103515625
    vert:
      serializedVersion: 2
      x: -2
      y: -18
      width: 41
      height: -53
    advance: 41
    flipped: 0
  - serializedVersion: 2
    index: 32
    uv:
      serializedVersion: 2
      x: 0
      y: 1
      width: 0
      height: 0
    vert:
      serializedVersion: 2
      x: -2
      y: -18
      width: 0
      height: 0
    advance: 16
    flipped: 0
  m_Texture: {fileID: 0}
  m_KerningValues: []
  m_PixelScale: 0.1
  m_FontData: 
  m_FontSize: 72
  m_Ascent: 0
  m_Descent: 0
  m_DefaultStyle: 0
  m_FontNames: []
  m_FallbackFonts: []
  m_FontRenderingMode: 0
--- !u!21 &21000011202548436
Material:
  serializedVersion: 6
  m_ObjectHideFlags: 0
  m_PrefabParentObject: {fileID: 0}
  m_PrefabInternal: {fileID: 0}
  m_Name: Font Material
  m_Shader: {fileID: 10770, guid: 0000000000000000f000000000000000, type: 0}
  m_ShaderKeywords: 
  m_LightmapFlags: 5
  m_CustomRenderQueue: -1
  stringTagMap: {}
  m_SavedProperties:
    serializedVersion: 2
    m_TexEnvs:
    - first:
        name: _MainTex
      second:
        m_Texture: {fileID: 2800000, guid: ff3a40f8dd6eb48f08ce84122b97ffa7, type: 3}
        m_Scale: {x: 1, y: 1}
        m_Offset: {x: 0, y: 0}
    m_Floats:
    - first:
        name: _ColorMask
      second: 15
    - first:
        name: _Stencil
      second: 0
    - first:
        name: _StencilComp
      second: 8
    - first:
        name: _StencilOp
      second: 0
    - first:
        name: _StencilReadMask
      second: 255
    - first:
        name: _StencilWriteMask
      second: 255
    - first:
        name: _UseUIAlphaClip
      second: 0
    m_Colors:
    - first:
        name: _Color
      second: {r: 1, g: 1, b: 1, a: 1}
