%YAML 1.1
%TAG !u! tag:unity3d.com,2011:
--- !u!21 &2100000
Material:
  serializedVersion: 6
  m_ObjectHideFlags: 0
  m_PrefabParentObject: {fileID: 0}
  m_PrefabInternal: {fileID: 0}
  m_Name: RetroSkybox
  m_Shader: {fileID: 4800000, guid: dfa17a30b23e94b049ffccdb334d21bc, type: 3}
  m_ShaderKeywords: _EMISSION _SUNENABLED_ON
  m_LightmapFlags: 1
  m_CustomRenderQueue: -1
  stringTagMap: {}
  m_SavedProperties:
    serializedVersion: 2
    m_TexEnvs:
    - first:
        name: _BumpMap
      second:
        m_Texture: {fileID: 0}
        m_Scale: {x: 1, y: 1}
        m_Offset: {x: 0, y: 0}
    - first:
        name: _DetailAlbedoMap
      second:
        m_Texture: {fileID: 0}
        m_Scale: {x: 1, y: 1}
        m_Offset: {x: 0, y: 0}
    - first:
        name: _DetailMask
      second:
        m_Texture: {fileID: 0}
        m_Scale: {x: 1, y: 1}
        m_Offset: {x: 0, y: 0}
    - first:
        name: _DetailNormalMap
      second:
        m_Texture: {fileID: 0}
        m_Scale: {x: 1, y: 1}
        m_Offset: {x: 0, y: 0}
    - first:
        name: _EmissionMap
      second:
        m_Texture: {fileID: 0}
        m_Scale: {x: 1, y: 1}
        m_Offset: {x: 0, y: 0}
    - first:
        name: _MainTex
      second:
        m_Texture: {fileID: 2800000, guid: a8c43fa8dc16b406aa969ed0b98868a1, type: 3}
        m_Scale: {x: 3, y: 3}
        m_Offset: {x: 0, y: 0}
    - first:
        name: _MetallicGlossMap
      second:
        m_Texture: {fileID: 0}
        m_Scale: {x: 1, y: 1}
        m_Offset: {x: 0, y: 0}
    - first:
        name: _OcclusionMap
      second:
        m_Texture: {fileID: 0}
        m_Scale: {x: 1, y: 1}
        m_Offset: {x: 0, y: 0}
    - first:
        name: _ParallaxMap
      second:
        m_Texture: {fileID: 0}
        m_Scale: {x: 1, y: 1}
        m_Offset: {x: 0, y: 0}
    m_Floats:
    - first:
        name: _Border
      second: 0.5
    - first:
        name: _BottomSpeed
      second: 5
    - first:
        name: _BumpScale
      second: 1
    - first:
        name: _Cutoff
      second: 0.5
    - first:
        name: _DetailNormalMapScale
      second: 1
    - first:
        name: _DirectionPitch
      second: 56.9
    - first:
        name: _DirectionYaw
      second: 0
    - first:
        name: _DstBlend
      second: 0
    - first:
        name: _Exponent
      second: 1.45
    - first:
        name: _Gain
      second: 2
    - first:
        name: _GlossMapScale
      second: 1
    - first:
        name: _Glossiness
      second: 0.5
    - first:
        name: _GlossyReflections
      second: 1
    - first:
        name: _Intensity
      second: 1
    - first:
        name: _Metallic
      second: 0
    - first:
        name: _Mode
      second: 0
    - first:
        name: _OcclusionStrength
      second: 1
    - first:
        name: _Parallax
      second: 0.02
    - first:
        name: _SmoothnessTextureChannel
      second: 0
    - first:
        name: _SpecularHighlights
      second: 1
    - first:
        name: _SrcBlend
      second: 1
    - first:
        name: _StripesDistance
      second: 0.01068
    - first:
        name: _StripesExponent1
      second: 2.27
    - first:
        name: _StripesExponent2
      second: 3.5
    - first:
        name: _StripesHeight
      second: 0.542
    - first:
        name: _StripesSpeed
      second: 0.25
    - first:
        name: _StripesWidth
      second: 0.00668
    - first:
        name: _SunEnabled
      second: 1
    - first:
        name: _SunExponent
      second: 3.71
    - first:
        name: _SunPitch
      second: 102.3
    - first:
        name: _SunSize
      second: 0.0107
    - first:
        name: _SunYaw
      second: 180
    - first:
        name: _UVSec
      second: 0
    - first:
        name: _ZWrite
      second: 1
    m_Colors:
    - first:
        name: _Color
      second: {r: 1, g: 1, b: 1, a: 1}
    - first:
        name: _Color1
      second: {r: 1, g: 1, b: 1, a: 0}
    - first:
        name: _Color2
      second: {r: 0.20659423, g: 0.13140441, b: 0.50735295, a: 0}
    - first:
        name: _ColorBg
      second: {r: 0.97, g: 0.67, b: 0.51, a: 0}
    - first:
        name: _ColorGround1
      second: {r: 0, g: 0.7, b: 0.74, a: 0}
    - first:
        name: _ColorGround2
      second: {r: 0, g: 0.6, b: 0.74, a: 0}
    - first:
        name: _ColorStripe
      second: {r: 0, g: 0.7, b: 0.74, a: 0}
    - first:
        name: _ColorSun
      second: {r: 0.97, g: 0.67, b: 0.51, a: 0}
    - first:
        name: _ColorSun1
      second: {r: 0.14300193, g: 0, b: 0.44117647, a: 0}
    - first:
        name: _ColorSun2
      second: {r: 1, g: 0.375, b: 0.375, a: 0}
    - first:
        name: _Direction
      second: {r: 0, g: 0.5461019, b: 0.8377187, a: 0}
    - first:
        name: _EmissionColor
      second: {r: 0, g: 0, b: 0, a: 1}
    - first:
        name: _SunDirection
      second: {r: -0.00000008541603, g: -0.21303047, b: -0.97704554, a: 0}
    - first:
        name: _SunDirectionP
      second: {r: 0.00000001862373, g: -0.97704554, b: 0.21303064, a: 0}
